<svg width="24" height="9" viewBox="0 0 24 9" fill="none" xmlns="http://www.w3.org/2000/svg">
<rect width="24" height="2" rx="1" fill="#0A1B2B"/>
<rect y="7" width="24" height="2" rx="1" fill="#0A1B2B"/>
</svg>
